1024x1024, 2x2, 0.029013
1024x1024, 3x3, 0.027989
1024x1024, 4x4, 0.033451
1024x1024, 5x5, 0.033792
1024x1024, 6x6, 0.041301
1024x1024, 7x7, 0.045739
1024x1024, 8x8, 0.055979
1024x1024, 9x9, 0.060416
1024x1024, 10x10, 0.073728
1024x1024, 11x11, 0.091136
1024x1024, 12x12, 0.114688
1024x1024, 13x13, 0.139264
1024x1024, 14x14, 0.154624
1024x1024, 15x15, 0.172373
1024x1024, 16x16, 0.223232
1024x1024, 17x17, 0.253269
1024x1024, 18x18, 0.282965
1024x1024, 19x19, 0.377856
1024x1024, 20x20, 0.410624
1024x1024, 21x21, 0.493227
1024x1024, 22x22, 0.583680
1024x1024, 23x23, 0.679253
1024x1024, 24x24, 0.845141
1024x1024, 25x25, 0.974848
1024x1024, 26x26, 1.247573
1024x1024, 27x27, 1.549995
1024x1024, 28x28, 1.972224
1024x1024, 29x29, 2.600277
1024x1024, 30x30, 3.701077
1024x1024, 31x31, 5.931691
1024x1024, 32x32, 12.634112
2048x2048, 2x2, 0.075776
2048x2048, 3x3, 0.067584
2048x2048, 4x4, 0.069973
2048x2048, 5x5, 0.078165
2048x2048, 6x6, 0.102741
2048x2048, 7x7, 0.118784
2048x2048, 8x8, 0.177152
2048x2048, 9x9, 0.200704
2048x2048, 10x10, 0.248491
2048x2048, 11x11, 0.279893
2048x2048, 12x12, 0.368299
2048x2048, 13x13, 0.437248
2048x2048, 14x14, 0.509269
2048x2048, 15x15, 0.617131
2048x2048, 16x16, 0.768683
2048x2048, 17x17, 0.864256
2048x2048, 18x18, 1.064960
2048x2048, 19x19, 1.289899
2048x2048, 20x20, 1.545557
2048x2048, 21x21, 1.843883
2048x2048, 22x22, 2.185899
2048x2048, 23x23, 2.587307
2048x2048, 24x24, 3.136171
2048x2048, 25x25, 3.772075
2048x2048, 26x26, 4.722347
2048x2048, 27x27, 5.949781
2048x2048, 28x28, 7.775573
2048x2048, 29x29, 10.304853
2048x2048, 30x30, 14.754475
2048x2048, 31x31, 23.708330
2048x2048, 32x32, 45.724331
4096x4096, 2x2, 0.225280
4096x4096, 3x3, 0.209237
4096x4096, 4x4, 0.216405
4096x4096, 5x5, 0.239275
4096x4096, 6x6, 0.330752
4096x4096, 7x7, 0.402773
4096x4096, 8x8, 0.570709
4096x4096, 9x9, 0.666624
4096x4096, 10x10, 0.902485
4096x4096, 11x11, 1.037312
4096x4096, 12x12, 1.333248
4096x4096, 13x13, 1.676629
4096x4096, 14x14, 1.941504
4096x4096, 15x15, 2.246315
4096x4096, 16x16, 2.884949
4096x4096, 17x17, 3.394901
4096x4096, 18x18, 3.997355
4096x4096, 19x19, 4.859904
4096x4096, 20x20, 5.811882
4096x4096, 21x21, 7.085397
4096x4096, 22x22, 8.413867
4096x4096, 23x23, 10.241707
4096x4096, 24x24, 12.186966
4096x4096, 25x25, 14.906368
4096x4096, 26x26, 18.777430
4096x4096, 27x27, 23.651329
4096x4096, 28x28, 30.686890
4096x4096, 29x29, 36.919636
4096x4096, 30x30, 50.044926
4096x4096, 31x31, 80.906921
4096x4096, 32x32, 172.141907
8192x8192, 2x2, 0.806571
8192x8192, 3x3, 0.776192
8192x8192, 4x4, 0.786773
8192x8192, 5x5, 0.853333
8192x8192, 6x6, 1.184085
8192x8192, 7x7, 1.524395
8192x8192, 8x8, 2.094080
8192x8192, 9x9, 2.573653
8192x8192, 10x10, 3.382955
8192x8192, 11x11, 4.057429
8192x8192, 12x12, 5.106005
8192x8192, 13x13, 6.444032
8192x8192, 14x14, 7.670443
8192x8192, 15x15, 8.965461
8192x8192, 16x16, 11.215873
8192x8192, 17x17, 13.231105
8192x8192, 18x18, 15.885312
8192x8192, 19x19, 18.918058
8192x8192, 20x20, 22.686720
8192x8192, 21x21, 28.188332
8192x8192, 22x22, 30.389589
8192x8192, 23x23, 34.439510
8192x8192, 24x24, 41.472683
8192x8192, 25x25, 50.798935
8192x8192, 26x26, 72.462677
8192x8192, 27x27, 82.936493
8192x8192, 28x28, 104.468475
8192x8192, 29x29, 140.452179
8192x8192, 30x30, 200.710831
8192x8192, 31x31, 323.808594
8192x8192, 32x32, 689.579651
9216x9216, 2x2, 1.004203
9216x9216, 3x3, 0.968704
9216x9216, 4x4, 0.985771
9216x9216, 5x5, 1.052331
9216x9216, 6x6, 1.525419
9216x9216, 7x7, 1.954475
9216x9216, 8x8, 2.682197
9216x9216, 9x9, 3.159723
9216x9216, 10x10, 4.292608
9216x9216, 11x11, 4.985856
9216x9216, 12x12, 6.419115
9216x9216, 13x13, 8.079019
9216x9216, 14x14, 9.810603
9216x9216, 15x15, 11.455487
9216x9216, 16x16, 14.157825
9216x9216, 17x17, 16.626688
9216x9216, 18x18, 20.219904
9216x9216, 19x19, 23.899818
9216x9216, 20x20, 28.549461
9216x9216, 21x21, 31.432364
9216x9216, 22x22, 41.739605
9216x9216, 23x23, 46.336338
9216x9216, 24x24, 52.412075
9216x9216, 25x25, 64.273750
9216x9216, 26x26, 80.151894
9216x9216, 27x27, 101.367805
9216x9216, 28x28, 132.088486
9216x9216, 29x29, 177.536331
9216x9216, 30x30, 252.916733
9216x9216, 31x31, 408.965454
9216x9216, 32x32, 870.736572
