1024x1024, 2x2, 0.029003
1024x1024, 3x3, 0.026720
1024x1024, 4x4, 0.031936
1024x1024, 5x5, 0.034261
1024x1024, 6x6, 0.041419
1024x1024, 7x7, 0.046379
1024x1024, 8x8, 0.055669
1024x1024, 9x9, 0.060768
1024x1024, 10x10, 0.074517
1024x1024, 11x11, 0.085867
1024x1024, 12x12, 0.122645
1024x1024, 13x13, 0.127179
1024x1024, 14x14, 0.160341
1024x1024, 15x15, 0.179157
1024x1024, 16x16, 0.221333
1024x1024, 17x17, 0.253621
1024x1024, 18x18, 0.277547
1024x1024, 19x19, 0.372672
1024x1024, 20x20, 0.411029
1024x1024, 21x21, 0.499701
1024x1024, 22x22, 0.580875
1024x1024, 23x23, 0.687253
1024x1024, 24x24, 0.852907
1024x1024, 25x25, 0.986411
1024x1024, 26x26, 1.252832
1024x1024, 27x27, 1.561600
1024x1024, 28x28, 1.973248
1024x1024, 29x29, 2.596363
1024x1024, 30x30, 3.725653
1024x1024, 31x31, 5.966709
1024x1024, 32x32, 12.628726
2048x2048, 2x2, 0.069899
2048x2048, 3x3, 0.073653
2048x2048, 4x4, 0.069781
2048x2048, 5x5, 0.078752
2048x2048, 6x6, 0.102528
2048x2048, 7x7, 0.121760
2048x2048, 8x8, 0.175403
2048x2048, 9x9, 0.201877
2048x2048, 10x10, 0.251360
2048x2048, 11x11, 0.279456
2048x2048, 12x12, 0.366517
2048x2048, 13x13, 0.442517
2048x2048, 14x14, 0.517792
2048x2048, 15x15, 0.626912
2048x2048, 16x16, 0.775605
2048x2048, 17x17, 0.866347
2048x2048, 18x18, 1.069024
2048x2048, 19x19, 1.299072
2048x2048, 20x20, 1.544352
2048x2048, 21x21, 1.851339
2048x2048, 22x22, 2.193237
2048x2048, 23x23, 2.598837
2048x2048, 24x24, 3.146720
2048x2048, 25x25, 3.777045
2048x2048, 26x26, 4.737643
2048x2048, 27x27, 5.939734
2048x2048, 28x28, 7.779861
2048x2048, 29x29, 10.300928
2048x2048, 30x30, 14.773151
2048x2048, 31x31, 23.686708
2048x2048, 32x32, 50.423954
4096x4096, 2x2, 0.215979
4096x4096, 3x3, 0.208128
4096x4096, 4x4, 0.221376
4096x4096, 5x5, 0.230208
4096x4096, 6x6, 0.304736
4096x4096, 7x7, 0.369557
4096x4096, 8x8, 0.519616
4096x4096, 9x9, 0.606368
4096x4096, 10x10, 0.830368
4096x4096, 11x11, 0.952224
4096x4096, 12x12, 1.212672
4096x4096, 13x13, 1.524096
4096x4096, 14x14, 1.763797
4096x4096, 15x15, 2.039531
4096x4096, 16x16, 2.628651
4096x4096, 17x17, 3.093152
4096x4096, 18x18, 3.633451
4096x4096, 19x19, 4.408555
4096x4096, 20x20, 5.275893
4096x4096, 21x21, 6.426976
4096x4096, 22x22, 7.636576
4096x4096, 23x23, 9.263616
4096x4096, 24x24, 11.054325
4096x4096, 25x25, 13.605099
4096x4096, 26x26, 17.016233
4096x4096, 27x27, 21.465738
4096x4096, 28x28, 27.816950
4096x4096, 29x29, 35.098572
4096x4096, 30x30, 50.103821
4096x4096, 31x31, 80.852440
4096x4096, 32x32, 172.102432
8192x8192, 2x2, 0.799616
8192x8192, 3x3, 0.778037
8192x8192, 4x4, 0.788331
8192x8192, 5x5, 0.850475
8192x8192, 6x6, 1.185504
8192x8192, 7x7, 1.527893
8192x8192, 8x8, 2.098325
8192x8192, 9x9, 2.582923
8192x8192, 10x10, 3.393632
8192x8192, 11x11, 4.081504
8192x8192, 12x12, 5.109963
8192x8192, 13x13, 6.458454
8192x8192, 14x14, 7.677301
8192x8192, 15x15, 8.952704
8192x8192, 16x16, 11.222698
8192x8192, 17x17, 13.243530
8192x8192, 18x18, 15.895669
8192x8192, 19x19, 18.921333
8192x8192, 20x20, 22.687647
8192x8192, 21x21, 28.188852
8192x8192, 22x22, 30.378069
8192x8192, 23x23, 34.755970
8192x8192, 24x24, 41.509815
8192x8192, 25x25, 58.744968
8192x8192, 26x26, 66.830101
8192x8192, 27x27, 80.212311
8192x8192, 28x28, 104.195526
8192x8192, 29x29, 140.187729
8192x8192, 30x30, 200.180740
8192x8192, 31x31, 323.040741
8192x8192, 32x32, 687.868958
9216x9216, 2x2, 0.995872
9216x9216, 3x3, 0.979744
9216x9216, 4x4, 0.992555
9216x9216, 5x5, 1.059584
9216x9216, 6x6, 1.533333
9216x9216, 7x7, 1.959136
9216x9216, 8x8, 2.686347
9216x9216, 9x9, 3.167552
9216x9216, 10x10, 4.301803
9216x9216, 11x11, 4.991872
9216x9216, 12x12, 6.431446
9216x9216, 13x13, 8.085728
9216x9216, 14x14, 9.816181
9216x9216, 15x15, 11.404160
9216x9216, 16x16, 14.163220
9216x9216, 17x17, 16.631563
9216x9216, 18x18, 20.196619
9216x9216, 19x19, 23.886923
9216x9216, 20x20, 28.876383
9216x9216, 21x21, 31.807959
9216x9216, 22x22, 35.929729
9216x9216, 23x23, 43.638317
9216x9216, 24x24, 52.413513
9216x9216, 25x25, 71.787102
9216x9216, 26x26, 80.200081
9216x9216, 27x27, 101.341850
9216x9216, 28x28, 132.069641
9216x9216, 29x29, 177.566772
9216x9216, 30x30, 252.883469
9216x9216, 31x31, 408.946442
9216x9216, 32x32, 870.931091
