1024x1024x1, 3x3x1x1, 0.421888
1024x1024x1, 5x5x1x1, 0.561152
1024x1024x1, 7x7x1x1, 0.794624
1024x1024x1, 9x9x1x1, 1.088512
1024x1024x1, 11x11x1x1, 1.518592
1024x1024x1, 13x13x1x1, 3.123200
1024x1024x1, 15x15x1x1, 4.044800
1024x1024x1, 17x17x1x1, 5.192704
1024x1024x1, 19x19x1x1, 6.245376
1024x1024x1, 21x21x1x1, 7.694336
1024x1024x1, 23x23x1x1, 9.177088
1024x1024x1, 25x25x1x1, 11.020288
1024x1024x1, 27x27x1x1, 12.344320
1024x1024x1, 29x29x1x1, 14.477312
1024x1024x1, 31x31x1x1, 16.626688
